[
    {
        "content": "<p>Hi<br>\nWe have noticed the OAI-PMH harvesting endpoint only delivers 10 results.<br>\nAre we doing something wrong?</p>\n<p>See these examples:<br>\n<a href=\"https://demo.dataverse.deic.dk/oai?verb=ListRecords&amp;metadataPrefix=dataverse_json\">https://demo.dataverse.deic.dk/oai?verb=ListRecords&amp;metadataPrefix=dataverse_json</a><br>\n<a href=\"https://dataverse.no/oai?verb=ListRecords&amp;metadataPrefix=dataverse_json\">https://dataverse.no/oai?verb=ListRecords&amp;metadataPrefix=dataverse_json</a><br>\n<a href=\"https://dataverse.harvard.edu/oai?verb=ListRecords&amp;metadataPrefix=dataverse_json\">https://dataverse.harvard.edu/oai?verb=ListRecords&amp;metadataPrefix=dataverse_json</a></p>",
        "id": 573015902,
        "sender_full_name": "Asbjørn Skødt",
        "timestamp": 1770724116
    },
    {
        "content": "<p>Hi <span class=\"user-mention\" data-user-id=\"671269\">@Asbjørn Skødt</span> ,</p>\n<p>The normal OAI-PMH behaviour is to return a limited number of results at a time (10 in the main Dataverse and Demo Dataverse cases, and 100 in most other instances).<br>\nYou need to keep requesting the next batch of results (another 10, then the next 10, and so on).<br>\nAt the end of the page you can see the resumption token (this value will change):</p>\n<p>&lt;resumptionToken completeListSize=\"94\" cursor=\"0\"&gt;b2Zmc2V0OjoxMHxwcmVmaXg6OmRhdGF2ZXJzZV9qc29u&lt;/resumptionToken&gt;</p>\n<p>So, next oai command to request another 10 results should be: <br>\n<a href=\"https://demo.dataverse.deic.dk/oai?verb=ListRecords&amp;resumptionToken=b2Zmc2V0OjoxMHxwcmVmaXg6OmRhdGF2ZXJzZV9qc29u\">https://demo.dataverse.deic.dk/oai?verb=ListRecords&amp;resumptionToken=b2Zmc2V0OjoxMHxwcmVmaXg6OmRhdGF2ZXJzZV9qc29u</a></p>",
        "id": 573019611,
        "sender_full_name": "Juan",
        "timestamp": 1770725037
    },
    {
        "content": "<p>We understand.<br>\nThank you so much.</p>",
        "id": 573022745,
        "sender_full_name": "Asbjørn Skødt",
        "timestamp": 1770725856
    },
    {
        "content": "<p>Making this a tad more complete: if you as an installation want to return larger amounts of records at a time, you can change the MPCONFIG based setting \"dataverse.oai.server.maxrecords\" to whatever value you like. It defaults to 10.</p>",
        "id": 573296264,
        "sender_full_name": "Oliver Bertuch",
        "timestamp": 1770819023
    },
    {
        "content": "<p>A word of caution: depending on the amount of exported data, this may blow up in your face if too large. Especially datasets with lots of variables and files may be dangerous.</p>",
        "id": 573296537,
        "sender_full_name": "Oliver Bertuch",
        "timestamp": 1770819081
    }
]